uart-verilog/tests/1.vcd
$date
	Wed Feb 14 10:22:57 2024
$end
$version
	Icarus Verilog
$end
$timescale
	1ns
$end
$scope module test $end
$var wire 1 ! txDone_2 $end
$var wire 1 " txDone_1 $end
$var wire 1 # txBusy_2 $end
$var wire 1 $ txBusy_1 $end
$var wire 1 % rxErr_2 $end
$var wire 1 & rxErr_1 $end
$var wire 1 ' rxDone_2 $end
$var wire 1 ( rxDone_1 $end
$var wire 8 ) rxByte_2 [7:0] $end
$var wire 8 * rxByte_1 [7:0] $end
$var wire 1 + rxBusy_2 $end
$var wire 1 , rxBusy_1 $end
$var wire 1 - bus_wire_2_1 $end
$var wire 1 . bus_wire_1_2 $end
$var parameter 32 / CLOCK_FREQ $end
$var parameter 32 0 ENABLED_BAUD_CLOCK_STEPS $end
$var real 1 1 SIM_STEP_FREQ $end
$var real 1 2 SIM_TIMESTEP_FACTOR $end
$var reg 1 3 clk $end
$var reg 1 4 en_1 $end
$var reg 1 5 en_2 $end
$var reg 8 6 txByte_1 [7:0] $end
$var reg 8 7 txByte_2 [7:0] $end
$var reg 1 8 txStart_1 $end
$var reg 1 9 txStart_2 $end
$scope module uart1 $end
$var wire 1 3 clk $end
$var wire 8 : in [7:0] $end
$var wire 1 5 rxEn $end
$var wire 1 4 txEn $end
$var wire 1 8 txStart $end
$var wire 1 " txDone $end
$var wire 1 ; txClk $end
$var wire 1 $ txBusy $end
$var wire 1 . tx $end
$var wire 1 & rxErr $end
$var wire 1 ( rxDone $end
$var wire 1 < rxClk $end
$var wire 1 , rxBusy $end
$var wire 1 - rx $end
$var wire 8 = out [7:0] $end
$var parameter 32 > BAUD_RATE $end
$var parameter 32 ? CLOCK_RATE $end
$var parameter 32 @ RX_OVERSAMPLE_RATE $end
$var parameter 32 A TURBO_FRAMES $end
$scope module generatorInst $end
$var wire 1 3 clk $end
$var parameter 32 B BAUD_RATE $end
$var parameter 32 C CLOCK_RATE $end
$var parameter 96 D RX_ACC_MAX $end
$var parameter 32 E RX_ACC_WIDTH $end
$var parameter 32 F RX_OVERSAMPLE_RATE $end
$var parameter 64 G TX_ACC_MAX $end
$var parameter 32 H TX_ACC_WIDTH $end
$var reg 1 < rxClk $end
$var reg 6 I rx_counter [5:0] $end
$var reg 1 ; txClk $end
$var reg 10 J tx_counter [9:0] $end
$upscope $end
$scope module rxInst $end
$var wire 1 < clk $end
$var wire 1 5 en $end
$var wire 1 K in_sample $end
$var wire 4 L in_prior_hold_reg [3:0] $end
$var wire 4 M in_current_hold_reg [3:0] $end
$var wire 1 - in $end
$var reg 3 N bit_index [2:0] $end
$var reg 1 , busy $end
$var reg 1 ( done $end
$var reg 1 & err $end
$var reg 5 O in_hold_reg [4:0] $end
$var reg 2 P in_reg [1:0] $end
$var reg 8 Q out [7:0] $end
$var reg 5 R out_hold_count [4:0] $end
$var reg 8 S received_data [7:0] $end
$var reg 4 T sample_count [3:0] $end
$var reg 3 U state [2:0] $end
$upscope $end
$scope module txInst $end
$var wire 1 ; clk $end
$var wire 1 4 en $end
$var wire 8 V in [7:0] $end
$var wire 1 8 start $end
$var parameter 32 W TURBO_FRAMES $end
$var reg 3 X bit_index [2:0] $end
$var reg 1 $ busy $end
$var reg 1 " done $end
$var reg 8 Y in_data [7:0] $end
$var reg 1 . out $end
$var reg 3 Z state [2:0] $end
$upscope $end
$upscope $end
$scope module uart2 $end
$var wire 1 3 clk $end
$var wire 8 [ in [7:0] $end
$var wire 1 . rx $end
$var wire 1 4 rxEn $end
$var wire 1 5 txEn $end
$var wire 1 9 txStart $end
$var wire 1 ! txDone $end
$var wire 1 \ txClk $end
$var wire 1 # txBusy $end
$var wire 1 - tx $end
$var wire 1 % rxErr $end
$var wire 1 ' rxDone $end
$var wire 1 ] rxClk $end
$var wire 1 + rxBusy $end
$var wire 8 ^ out [7:0] $end
$var parameter 32 _ BAUD_RATE $end
$var parameter 32 ` CLOCK_RATE $end
$var parameter 32 a RX_OVERSAMPLE_RATE $end
$var parameter 32 b TURBO_FRAMES $end
$scope module generatorInst $end
$var wire 1 3 clk $end
$var parameter 32 c BAUD_RATE $end
$var parameter 32 d CLOCK_RATE $end
$var parameter 96 e RX_ACC_MAX $end
$var parameter 32 f RX_ACC_WIDTH $end
$var parameter 32 g RX_OVERSAMPLE_RATE $end
$var parameter 64 h TX_ACC_MAX $end
$var parameter 32 i TX_ACC_WIDTH $end
$var reg 1 ] rxClk $end
$var reg 6 j rx_counter [5:0] $end
$var reg 1 \ txClk $end
$var reg 10 k tx_counter [9:0] $end
$upscope $end
$scope module rxInst $end
$var wire 1 ] clk $end
$var wire 1 4 en $end
$var wire 1 . in $end
$var wire 1 l in_sample $end
$var wire 4 m in_prior_hold_reg [3:0] $end
$var wire 4 n in_current_hold_reg [3:0] $end
$var reg 3 o bit_index [2:0] $end
$var reg 1 + busy $end
$var reg 1 ' done $end
$var reg 1 % err $end
$var reg 5 p in_hold_reg [4:0] $end
$var reg 2 q in_reg [1:0] $end
$var reg 8 r out [7:0] $end
$var reg 5 s out_hold_count [4:0] $end
$var reg 8 t received_data [7:0] $end
$var reg 4 u sample_count [3:0] $end
$var reg 3 v state [2:0] $end
$upscope $end
$scope module txInst $end
$var wire 1 \ clk $end
$var wire 1 5 en $end
$var wire 8 w in [7:0] $end
$var wire 1 9 start $end
$var parameter 32 x TURBO_FRAMES $end
$var reg 3 y bit_index [2:0] $end
$var reg 1 # busy $end
$var reg 1 ! done $end
$var reg 8 z in_data [7:0] $end
$var reg 1 - out $end
$var reg 3 { state [2:0] $end
$upscope $end
$upscope $end
$scope begin $unm_blk_67 $end
$var integer 32 | t [31:0] $end
$upscope $end
$upscope $end
$enddefinitions $end
$comment Show the parameter values. $end
$dumpall
b0 x
b1010 i
b1001110001 h
b10000 g
b110 f
b100111 e
b101101110001101100000000 d
b10010110000000 c
b0 b
b10000 a
b101101110001101100000000 `
b10010110000000 _
b0 W
b1010 H
b1001110001 G
b10000 F
b110 E
b100111 D
b101101110001101100000000 C
b10010110000000 B
b0 A
b10000 @
b101101110001101100000000 ?
b10010110000000 >
r0.4166666666666667 2
r5000000 1
b10001 0
b101101110001101100000000 /
$end
#0
$dumpvars
bx |
b0 {
b0 z
b0 y
bx w
b0 v
b0 u
b0 t
b0 s
bx r
b0 q
b0 p
b0 o
b0 n
b0 m
0l
b0 k
b0 j
bx ^
0]
0\
bx [
b0 Z
b0 Y
b0 X
bx V
b0 U
b0 T
b0 S
b0 R
bx Q
b0 P
b0 O
b0 N
b0 M
b0 L
0K
b0 J
b0 I
bx =
0<
0;
bx :
x9
x8
bx 7
bx 6
x5
x4
03
x.
x-
x,
x+
bx *
bx )
x(
x'
x&
x%
x$
x#
x"
x!
$end
#42
b1 J
b1 I
b1 k
b1 j
13
#84
03
#126
b10 k
b10 j
b10 J
b10 I
13
#168
03
#210
b11 J
b11 I
b11 k
b11 j
13
#252
03
#294
b100 k
b100 j
b100 J
b100 I
13
#336
03
#378
b101 J
b101 I
b101 k
b101 j
13
#420
03
#462
b110 k
b110 j
b110 J
b110 I
13
#504
03
#546
b111 J
b111 I
b111 k
b111 j
13
#588
03
#630
b1000 k
b1000 j
b1000 J
b1000 I
13
#672
03
#714
b1001 J
b1001 I
b1001 k
b1001 j
13
#756
03
#798
b1010 k
b1010 j
b1010 J
b1010 I
13
#840
03
#882
b1011 J
b1011 I
b1011 k
b1011 j
13
#924
03
#966
b1100 k
b1100 j
b1100 J
b1100 I
13
#1008
03
#1050
b1101 J
b1101 I
b1101 k
b1101 j
13
#1092
03
#1134
b1110 k
b1110 j
b1110 J
b1110 I
13
#1176
03
#1218
b1111 J
b1111 I
b1111 k
b1111 j
13
#1260
03
#1302
b10000 k
b10000 j
b10000 J
b10000 I
13
#1344
03
#1386
b10001 J
b10001 I
b10001 k
b10001 j
13
#1428
03
#1470
b10010 k
b10010 j
b10010 J
b10010 I
13
#1512
03
#1554
b10011 J
b10011 I
b10011 k
b10011 j
13
#1596
03
#1638
b10100 k
b10100 j
b10100 J
b10100 I
13
#1680
03
#1722
b10101 J
b10101 I
b10101 k
b10101 j
13
#1764
03
#1806
b10110 k
b10110 j
b10110 J
b10110 I
13
#1848
03
#1890
b10111 J
b10111 I
b10111 k
b10111 j
13
#1932
03
#1974
b11000 k
b11000 j
b11000 J
b11000 I
13
#2016
03
#2058
b11001 J
b11001 I
b11001 k
b11001 j
13
#2100
03
#2142
b11010 k
b11010 j
b11010 J
b11010 I
13
#2184
03
#2226
b11011 J
b11011 I
b11011 k
b11011 j
13
#2268
03
#2310
b11100 k
b11100 j
b11100 J
b11100 I
13
#2352
03
#2394
b11101 J
b11101 I
b11101 k
b11101 j
13
#2436
03
#2478
b11110 k
b11110 j
b11110 J
b11110 I
13
#2520
03
#2562
b11111 J
b11111 I
b11111 k
b11111 j
13
#2604
03
#2646
b100000 k
b100000 j
b100000 J
b100000 I
13
#2688
03
#2730
b100001 J
b100001 I
b100001 k
b100001 j
13
#2772
03
#2814
b100010 k
b100010 j
b100010 J
b100010 I
13
#2856
03
#2898
b100011 J
b100011 I
b100011 k
b100011 j
13
#2940
03
#2982
b100100 k
b100100 j
b100100 J
b100100 I
13
#3024
03
#3066
b100101 J
b100101 I
b100101 k
b100101 j
13
#3108
03
#3150
b100110 k
b100110 j
b100110 J
b100110 I
13
#3192
03
#3234
b100111 J
b100111 I
b100111 k
b100111 j
13
#3276
03
#3318
b0x q
b0 )
b0 ^
b0 r
0%
0'
0+
b0x P
b0 *
b0 =
b0 Q
0&
0(
0,
b101000 k
1]
b0 j
b101000 J
1<
b0 I
13
#3360
03
#3402
b101001 J
b1 I
b101001 k
b1 j
13
#3444
03
#3486
b101010 k
b10 j
b101010 J
b10 I
13
#3528
03
#3570
b101011 J
b11 I
b101011 k
b11 j
13
#3612
03
#3654
b101100 k
b100 j
b101100 J
b100 I
13
#3696
03
#3738
b101101 J
b101 I
b101101 k
b101 j
13
#3780
03
#3822
b101110 k
b110 j
b101110 J
b110 I
13
#3864
03
#3906
b101111 J
b111 I
b101111 k
b111 j
13
#3948
03
#3990
b110000 k
b1000 j
b110000 J
b1000 I
13
#4032
03
#4074
b110001 J
b1001 I
b110001 k
b1001 j
13
#4116
03
#4158
b110010 k
b1010 j
b110010 J
b1010 I
13
#4200
03
#4242
b110011 J
b1011 I
b110011 k
b1011 j
13
#4284
03
#4326
b110100 k
b1100 j
b110100 J
b1100 I
13
#4368
03
#4410
b110101 J
b1101 I
b110101 k
b1101 j
13
#4452
03
#4494
b110110 k
b1110 j
b110110 J
b1110 I
13
#4536
03
#4578
b110111 J
b1111 I
b110111 k
b1111 j
13
#4620
03
#4662
b111000 k
b10000 j
b111000 J
b10000 I
13
#4704
03
#4746
b111001 J
b10001 I
b111001 k
b10001 j
13
#4788
03
#4830
b111010 k
b10010 j
b111010 J
b10010 I
13
#4872
03
#4914
b111011 J
b10011 I
b111011 k
b10011 j
13
#4956
03
#4998
b111100 k
b10100 j
b111100 J
b10100 I
13
#5040
03
#5082
b111101 J
b10101 I
b111101 k
b10101 j
13
#5124
03
#5166
b111110 k
b10110 j
b111110 J
b10110 I
13
#5208
03
#5250
b111111 J
b10111 I
b111111 k
b10111 j
13
#5292
03
#5334
b1000000 k
b11000 j
b1000000 J
b11000 I
13
#5376
03
#5418
b1000001 J
b11001 I
b1000001 k
b11001 j
13
#5460
03
#5502
b1000010 k
b11010 j
b1000010 J
b11010 I
13
#5544
03
#5586
b1000011 J
b11011 I
b1000011 k
b11011 j
13
#5628
03
#5670
b1000100 k
b11100 j
b1000100 J
b11100 I
13
#5712
03
#5754
b1000101 J
b11101 I
b1000101 k
b11101 j
13
#5796
03
#5838
b1000110 k
b11110 j
b1000110 J
b11110 I
13
#5880
03
#5922
b1000111 J
b11111 I
b1000111 k
b11111 j
13
#5964
03
#6006
b1001000 k
b100000 j
b1001000 J
b100000 I
13
#6048
03
#6090
b1001001 J
b100001 I
b1001001 k
b100001 j
13
#6132
03
#6174
b1001010 k
b100010 j
b1001010 J
b100010 I
13
#6216
03
#6258
b1001011 J
b100011 I
b1001011 k
b100011 j
13
#6300
03
#6342
b1001100 k
b100100 j
b1001100 J
b100100 I
13
#6384
03
#6426
b1001101 J
b100101 I
b1001101 k
b100101 j
13
#6468
03
#6510
b1001110 k
b100110 j
b1001110 J
b100110 I
13
#6552
03
#6594
b1001111 J
b100111 I
b1001111 k
b100111 j
13
#6636
03
#6678
b1010000 k
0]
b0 j
b1010000 J
0<
b0 I
13
#6720
03
#6762
b1010001 J
b1 I
b1010001 k
b1 j
13
#6804
03
#6846
b1010010 k
b10 j
b1010010 J
b10 I
13
#6888
03
#6930
b1010011 J
b11 I
b1010011 k
b11 j
13
#6972
03
#7014
b1010100 k
b100 j
b1010100 J
b100 I
13
#7056
03
#7098
b1010101 J
b101 I
b1010101 k
b101 j
13
#7140
03
#7182
b1010110 k
b110 j
b1010110 J
b110 I
13
#7224
03
#7266
b1010111 J
b111 I
b1010111 k
b111 j
13
#7308
03
#7350
b1011000 k
b1000 j
b1011000 J
b1000 I
13
#7392
03
#7434
b1011001 J
b1001 I
b1011001 k
b1001 j
13
#7476
03
#7518
b1011010 k
b1010 j
b1011010 J
b1010 I
13
#7560
03
#7602
b1011011 J
b1011 I
b1011011 k
b1011 j
13
#7644
03
#7686
b1011100 k
b1100 j
b1011100 J
b1100 I
13
#7728
03
#7770
b1011101 J
b1101 I
b1011101 k
b1101 j
13
#7812
03
#7854
b1011110 k
b1110 j
b1011110 J
b1110 I
13
#7896
03
#7938
b1011111 J
b1111 I
b1011111 k
b1111 j
13
#7980
03
#8022
b1100000 k
b10000 j
b1100000 J
b10000 I
13
#8064
03
#8106
b1100001 J
b10001 I
b1100001 k
b10001 j
13
#8148
03
#8190
b1100010 k
b10010 j
b1100010 J
b10010 I
13
#8232
03
#8274
b1100011 J
b10011 I
b1100011 k
b10011 j
13
#8316
03
#8358
b1100100 k
b10100 j
b1100100 J
b10100 I
13
#8400
03
#8442
b1100101 J
b10101 I
b1100101 k
b10101 j
13
#8484
03
#8526
b1100110 k
b10110 j
b1100110 J
b10110 I
13
#8568
03
#8610
b1100111 J
b10111 I
b1100111 k
b10111 j
13
#8652
03
#8694
b1101000 k
b11000 j
b1101000 J
b11000 I
13
#8736
03
#8778
b1101001 J
b11001 I
b1101001 k
b11001 j
13
#8820
03
#8862
b1101010 k
b11010 j
b1101010 J
b11010 I
13
#8904
03
#8946
b1101011 J
b11011 I
b1101011 k
b11011 j
13
#8988
03
#9030
b1101100 k
b11100 j
b1101100 J
b11100 I
13
#9072
03
#9114
b1101101 J
b11101 I
b1101101 k
b11101 j
13
#9156
03
#9198
b1101110 k
b11110 j
b1101110 J
b11110 I
13
#9240
03
#9282
b1101111 J
b11111 I
b1101111 k
b11111 j
13
#9324
03
#9366
b1110000 k
b100000 j
b1110000 J
b100000 I
13
#9408
03
#9450
b1110001 J
b100001 I
b1110001 k
b100001 j
13
#9492
03
#9534
b1110010 k
b100010 j
b1110010 J
b100010 I
13
#9576
03
#9618
b1110011 J
b100011 I
b1110011 k
b100011 j
13
#9660
03
#9702
b1110100 k
b100100 j
b1110100 J
b100100 I
13
#9744
03
#9786
b1110101 J
b100101 I
b1110101 k
b100101 j
13
#9828
03
#9870
b1110110 k
b100110 j
b1110110 J
b100110 I
13
#9912
03
#9954
b1110111 J
b100111 I
b1110111 k
b100111 j
13
#9996
03
#10038
xl
xK
bx q
bx P
b1111000 k
1]
b0 j
b1111000 J
1<
b0 I
13
#10080
03
#10122
b1111001 J
b1 I
b1111001 k
b1 j
13
#10164
03
#10206
b1111010 k
b10 j
b1111010 J
b10 I
13
#10248
03
#10290
b1111011 J
b11 I
b1111011 k
b11 j
13
#10332
03
#10374
b1111100 k
b100 j
b1111100 J
b100 I
13
#10416
03
#10458
b1111101 J
b101 I
b1111101 k
b101 j
13
#10500
03
#10542
b1111110 k
b110 j
b1111110 J
b110 I
13
#10584
03
#10626
b1111111 J
b111 I
b1111111 k
b111 j
13
#10668
03
#10710
b10000000 k
b1000 j
b10000000 J
b1000 I
13
#10752
03
#10794
b10000001 J
b1001 I
b10000001 k
b1001 j
13
#10836
03
#10878
b10000010 k
b1010 j
b10000010 J
b1010 I
13
#10920
03
#10962
b10000011 J
b1011 I
b10000011 k
b1011 j
13
#11004
03
#11046
b10000100 k
b1100 j
b10000100 J
b1100 I
13
#11088
03
#11130
b10000101 J
b1101 I
b10000101 k
b1101 j
13
#11172
03
#11214
b10000110 k
b1110 j
b10000110 J
b1110 I
13
#11256
03
#11298
b10000111 J
b1111 I
b10000111 k
b1111 j
13
#11340
03
#11382
b10001000 k
b10000 j
b10001000 J
b10000 I
13
#11424
03
#11466
b10001001 J
b10001 I
b10001001 k
b10001 j
13
#11508
03
#11550
b10001010 k
b10010 j
b10001010 J
b10010 I
13
#11592
03
#11634
b10001011 J
b10011 I
b10001011 k
b10011 j
13
#11676
03
#11718
b10001100 k
b10100 j
b10001100 J
b10100 I
13
#11760
03
#11802
b10001101 J
b10101 I
b10001101 k
b10101 j
13
#11844
03
#11886
b10001110 k
b10110 j
b10001110 J
b10110 I
13
#11928
03
#11970
b10001111 J
b10111 I
b10001111 k
b10111 j
13
#12012
03
#12054
b10010000 k
b11000 j
b10010000 J
b11000 I
13
#12096
03
#12138
b10010001 J
b11001 I
b10010001 k
b11001 j
13
#12180
03
#12222
b10010010 k
b11010 j
b10010010 J
b11010 I
13
#12264
03
#12306
b10010011 J
b11011 I
b10010011 k
b11011 j
13
#12348
03
#12390
b10010100 k
b11100 j
b10010100 J
b11100 I
13
#12432
03
#12474
b10010101 J
b11101 I
b10010101 k
b11101 j
13
#12516
03
#12558
b10010110 k
b11110 j
b10010110 J
b11110 I
13
#12600
03
#12642
b10010111 J
b11111 I
b10010111 k
b11111 j
13
#12684
03
#12726
b10011000 k
b100000 j
b10011000 J
b100000 I
13
#12768
03
#12810
b10011001 J
b100001 I
b10011001 k
b100001 j
13
#12852
03
#12894
b10011010 k
b100010 j
b10011010 J
b100010 I
13
#12936
03
#12978
b10011011 J
b100011 I
b10011011 k
b100011 j
13
#13020
03
#13062
b10011100 k
b100100 j
b10011100 J
b100100 I
13
#13104
03
#13146
b10011101 J
b100101 I
b10011101 k
b100101 j
13
#13188
03
#13230
b10011110 k
b100110 j
b10011110 J
b100110 I
13
#13272
03
#13314
b10011111 J
b100111 I
b10011111 k
b100111 j
13
#13356
03
#13398
b10100000 k
0]
b0 j
b10100000 J
0<
b0 I
13
#13440
03
#13482
b10100001 J
b1 I
b10100001 k
b1 j
13
#13524
03
#13566
b10100010 k
b10 j
b10100010 J
b10 I
13
#13608
03
#13650
b10100011 J
b11 I
b10100011 k
b11 j
13
#13692
03
#13734
b10100100 k
b100 j
b10100100 J
b100 I
13
#13776
03
#13818
b10100101 J
b101 I
b10100101 k
b101 j
13
#13860
03
#13902
b10100110 k
b110 j
b10100110 J
b110 I
13
#13944
03
#13986
b10100111 J
b111 I
b10100111 k
b111 j
13
#14028
03
#14070
b10101000 k
b1000 j
b10101000 J
b1000 I
13
#14112
03
#14154
b10101001 J
b1001 I
b10101001 k
b1001 j
13
#14196
03
#14238
b10101010 k
b1010 j
b10101010 J
b1010 I
13
#14280
03
#14322
b10101011 J
b1011 I
b10101011 k
b1011 j
13
#14364
03
#14406
b10101100 k
b1100 j
b10101100 J
b1100 I
13
#14448
03
#14490
b10101101 J
b1101 I
b10101101 k
b1101 j
13
#14532
03
#14574
b10101110 k
b1110 j
b10101110 J
b1110 I
13
#14616
03
#14658
b10101111 J
b1111 I
b10101111 k
b1111 j
13
#14700
03
#14742
b10110000 k
b10000 j
b10110000 J
b10000 I
13
#14784
03
#14826
b10110001 J
b10001 I
b10110001 k
b10001 j
13
#14868
03
#14910
b10110010 k
b10010 j
b10110010 J
b10010 I
13
#14952
03
#14994
b10110011 J
b10011 I
b10110011 k
b10011 j
13
#15036
03
#15078
b10110100 k
b10100 j
b10110100 J
b10100 I
13
#15120
03
#15162
b10110101 J
b10101 I
b10110101 k
b10101 j
13
#15204
03
#15246
b10110110 k
b10110 j
b10110110 J
b10110 I
13
#15288
03
#15330
b10110111 J
b10111 I
b10110111 k
b10111 j
13
#15372
03
#15414
b10111000 k
b11000 j
b10111000 J
b11000 I
13
#15456
03
#15498
b10111001 J
b11001 I
b10111001 k
b11001 j
13
#15540
03
#15582
b10111010 k
b11010 j
b10111010 J
b11010 I
13
#15624
03
#15666
b10111011 J
b11011 I
b10111011 k
b11011 j
13
#15708
03
#15750
b10111100 k
b11100 j
b10111100 J
b11100 I
13
#15792
03
#15834
b10111101 J
b11101 I
b10111101 k
b11101 j
13
#15876
03
#15918
b10111110 k
b11110 j
b10111110 J
b11110 I
13
#15960
03
#16002
b10111111 J
b11111 I
b10111111 k
b11111 j
13
#16044
03
#16086
b11000000 k
b100000 j
b11000000 J
b100000 I
13
#16128
03
#16170
b11000001 J
b100001 I
b11000001 k
b100001 j
13
#16212
03
#16254
b11000010 k
b100010 j
b11000010 J
b100010 I
13
#16296
03
#16338
b11000011 J
b100011 I
b11000011 k
b100011 j
13
#16380
03
#16422
b11000100 k
b100100 j
b11000100 J
b100100 I
13
#16464
03
#16506
b11000101 J
b100101 I
b11000101 k
b100101 j
13
#16548
03
#16590
b11000110 k
b100110 j
b11000110 J
b100110 I
13
#16632
03
#16674
b11000111 J
b100111 I
b11000111 k
b100111 j
13
#16716
03
#16758
b0x n
b0x M
b0x p
b0x O
b11001000 k
1]
b0 j
b11001000 J
1<
b0 I
13
#16800
03
#16842
b11001001 J
b1 I
b11001001 k
b1 j
13
#16884
03
#16926
b11001010 k
b10 j
b11001010 J
b10 I
13
#16968
03
#17010
b11001011 J
b11 I
b11001011 k
b11 j
13
#17052
03
#17094
b11001100 k
b100 j
b11001100 J
b100 I
13
#17136
03
#17178
b11001101 J
b101 I
b11001101 k
b101 j
13
#17220
03
#17262
b11001110 k
b110 j
b11001110 J
b110 I
13
#17304
03
#17346
b11001111 J
b111 I
b11001111 k
b111 j
13
#17388
03
#17430
b11010000 k
b1000 j
b11010000 J
b1000 I
13
#17472
03
#17514
b11010001 J
b1001 I
b11010001 k
b1001 j
13
#17556
03
#17598
b11010010 k
b1010 j
b11010010 J
b1010 I
13
#17640
03
#17682
b11010011 J
b1011 I
b11010011 k
b1011 j
13
#17724
03
#17766
b11010100 k
b1100 j
b11010100 J
b1100 I
13
#17808
03
#17850
b11010101 J
b1101 I
b11010101 k
b1101 j
13
#17892
03
#17934
b11010110 k
b1110 j
b11010110 J
b1110 I
13
#17976
03
#18018
b11010111 J
b1111 I
b11010111 k
b1111 j
13
#18060
03
#18102
b11011000 k
b10000 j
b11011000 J
b10000 I
13
#18144
03
#18186
b11011001 J
b10001 I
b11011001 k
b10001 j
13
#18228
03
#18270
b11011010 k
b10010 j
b11011010 J
b10010 I
13
#18312
03
#18354
b11011011 J
b10011 I
b11011011 k
b10011 j
13
#18396
03
#18438
b11011100 k
b10100 j
b11011100 J
b10100 I
13
#18480
03
#18522
b11011101 J
b10101 I
b11011101 k
b10101 j
13
#18564
03
#18606
b11011110 k
b10110 j
b11011110 J
b10110 I
13
#18648
03
#18690
b11011111 J
b10111 I
b11011111 k
b10111 j
13
#18732
03
#18774
b11100000 k
b11000 j
b11100000 J
b11000 I
13
#18816
03
#18858
b11100001 J
b11001 I
b11100001 k
b11001 j
13
#18900
03
#18942
b11100010 k
b11010 j
b11100010 J
b11010 I
13
#18984
03
#19026
b11100011 J
b11011 I
b11100011 k
b11011 j
13
#19068
03
#19110
b11100100 k
b11100 j
b11100100 J
b11100 I
13
#19152
03
#19194
b11100101 J
b11101 I
b11100101 k
b11101 j
13
#19236
03
#19278
b11100110 k
b11110 j
b11100110 J
b11110 I
13
#19320
03
#19362
b11100111 J
b11111 I
b11100111 k
b11111 j
13
#19404
03
#19446
b11101000 k
b100000 j
b11101000 J
b100000 I
13
#19488
03
#19530
b11101001 J
b100001 I
b11101001 k
b100001 j
13
#19572
03
#19614
b11101010 k
b100010 j
b11101010 J
b100010 I
13
#19656
03
#19698
b11101011 J
b100011 I
b11101011 k
b100011 j
13
#19740
03
#19782
b11101100 k
b100100 j
b11101100 J
b100100 I
13
#19824
03
#19866
b11101101 J
b100101 I
b11101101 k
b100101 j
13
#19908
03
#19950
b11101110 k
b100110 j
b11101110 J
b100110 I
13
#19992
03
#20034
b11101111 J
b100111 I
b11101111 k
b100111 j
13
#20076
03
#20118
b11110000 k
0]
b0 j
b11110000 J
0<
b0 I
13
#20160
03
#20202
b11110001 J
b1 I
b11110001 k
b1 j
13
#20244
03
#20286
b11110010 k
b10 j
b11110010 J
b10 I
13
#20328
03
#20370
b11110011 J
b11 I
b11110011 k
b11 j
13
#20412
03
#20454
b11110100 k
b100 j
b11110100 J
b100 I
13
#20496
03
#20538
b11110101 J
b101 I
b11110101 k
b101 j
13
#20580
03
#20622
b11110110 k
b110 j
b11110110 J
b110 I
13
#20664
03
#20706
b11110111 J
b111 I
b11110111 k
b111 j
13
#20748
03
#20790
b11111000 k
b1000 j
b11111000 J
b1000 I
13
#20832
03
#20874
b11111001 J
b1001 I
b11111001 k
b1001 j
13
#20916
03
#20958
b11111010 k
b1010 j
b11111010 J
b1010 I
13
#21000
03
#21042
b11111011 J
b1011 I
b11111011 k
b1011 j
13
#21084
03
#21126
b11111100 k
b1100 j
b11111100 J
b1100 I
13
#21168
03
#21210
b11111101 J
b1101 I
b11111101 k
b1101 j
13
#21252
03
#21294
b11111110 k
b1110 j
b11111110 J
b1110 I
13
#21336
03
#21378
b11111111 J
b1111 I
b11111111 k
b1111 j
13
#21420
03
#21462
b100000000 k
b10000 j
b100000000 J
b10000 I
13
#21504
03
#21546
b100000001 J
b10001 I
b100000001 k
b10001 j
13
#21588
03
#21630
b100000010 k
b10010 j
b100000010 J
b10010 I
13
#21672
03
#21714
b100000011 J
b10011 I
b100000011 k
b10011 j
13
#21756
03
#21798
b100000100 k
b10100 j
b100000100 J
b10100 I
13
#21840
03
#21882
b100000101 J
b10101 I
b100000101 k
b10101 j
13
#21924
03
#21966
b100000110 k
b10110 j
b100000110 J
b10110 I
13
#22008
03
#22050
b100000111 J
b10111 I
b100000111 k
b10111 j
13
#22092
03
#22134
b100001000 k
b11000 j
b100001000 J
b11000 I
13
#22176
03
#22218
b100001001 J
b11001 I
b100001001 k
b11001 j
13
#22260
03
#22302
b100001010 k
b11010 j
b100001010 J
b11010 I
13
#22344
03
#22386
b100001011 J
b11011 I
b100001011 k
b11011 j
13
#22428
03
#22470
b100001100 k
b11100 j
b100001100 J
b11100 I
13
#22512
03
#22554
b100001101 J
b11101 I
b100001101 k
b11101 j
13
#22596
03
#22638
b100001110 k
b11110 j
b100001110 J
b11110 I
13
#22680
03
#22722
b100001111 J
b11111 I
b100001111 k
b11111 j
13
#22764
03
#22806
b100010000 k
b100000 j
b100010000 J
b100000 I
13
#22848
03
#22890
b100010001 J
b100001 I
b100010001 k
b100001 j
13
#22932
03
#22974
b100010010 k
b100010 j
b100010010 J
b100010 I
13
#23016
03
#23058
b100010011 J
b100011 I
b100010011 k
b100011 j
13
#23100
03
#23142
b100010100 k
b100100 j
b100010100 J
b100100 I
13
#23184
03
#23226
b100010101 J
b100101 I
b100010101 k
b100101 j
13
#23268
03
#23310
b100010110 k
b100110 j
b100010110 J
b100110 I
13
#23352
03
#23394
b100010111 J
b100111 I
b100010111 k
b100111 j
13
#23436
03
#23478
b0x m
b0xx n
b0x L
b0xx M
b0xx p
b0xx O
b100011000 k
1]
b0 j
b100011000 J
1<
b0 I
13
#23520
03
#23562
b100011001 J
b1 I
b100011001 k
b1 j
13
#23604
03
#23646
b100011010 k
b10 j
b100011010 J
b10 I
13
#23688
03
#23730
b100011011 J
b11 I
b100011011 k
b11 j
13
#23772
03
#23814
b100011100 k
b100 j
b100011100 J
b100 I
13
#23856
03
#23898
b100011101 J
b101 I
b100011101 k
b101 j
13
#23940
03
#23982
b100011110 k
b110 j
b100011110 J
b110 I
13
#24024
03
#24066
b100011111 J
b111 I
b100011111 k
b111 j
13
#24108
03
#24150
b100100000 k
b1000 j
b100100000 J
b1000 I
13
#24192
03
#24234
b100100001 J
b1001 I
b100100001 k
b1001 j
13
#24276
03
#24318
b100100010 k
b1010 j
b100100010 J
b1010 I
13
#24360
03
#24402
b100100011 J
b1011 I
b100100011 k
b1011 j
13
#24444
03
#24486
b100100100 k
b1100 j
b100100100 J
b1100 I
13
#24528
03
#24570
b100100101 J
b1101 I
b100100101 k
b1101 j
13
#24612
03
#24654
b100100110 k
b1110 j
b100100110 J
b1110 I
13
#24696
03
#24738
b100100111 J
b1111 I
b100100111 k
b1111 j
13
#24780
03
#24822
b100101000 k
b10000 j
b100101000 J
b10000 I
13
#24864
03
#24906
b100101001 J
b10001 I
b100101001 k
b10001 j
13
#24948
03
#24990
b100101010 k
b10010 j
b100101010 J
b10010 I
13
#25032
03
#25074
b100101011 J
b10011 I
b100101011 k
b10011 j
13
#25116
03
#25158
b100101100 k
b10100 j
b100101100 J
b10100 I
13
#25200
03
#25242
b100101101 J
b10101 I
b100101101 k
b10101 j
13
#25284
03
#25326
b100101110 k
b10110 j
b100101110 J
b10110 I
13
#25368
03
#25410
b100101111 J
b10111 I
b100101111 k
b10111 j
13
#25452
03
#25494
b100110000 k
b11000 j
b100110000 J
b11000 I
13
#25536
03
#25578
b100110001 J
b11001 I
b100110001 k
b11001 j
13
#25620
03
#25662
b100110010 k
b11010 j
b100110010 J
b11010 I
13
#25704
03
#25746
b100110011 J
b11011 I
b100110011 k
b11011 j
13
#25788
03
#25830
b100110100 k
b11100 j
b100110100 J
b11100 I
13
#25872
03
